Nombre,Correo,Contraseña
"Ana Bertha Cruz Valdovinos",abcruz@osaf.gob.mx,ILV29X6OIV
"Alexis Omar Briceño Jiménez",abriceno@osaf.gob.mx,3KT5THCRVG
"Andrea Elizabeth Buenrostro García",abuenrostro@osaf.gob.mx,colima2019$
"Armida De la Vega Pascual",adelavega@osaf.gob.mx,ZDRA82LUWF
"José Fonseca Zamora",jfonseca@osaf.gob.mx,osafig-01
"Alondra Elizabeth Villalobos Gómez",aevillalobos@osaf.gob.mx,XAF9DGYBCV
"Azucena Figueroa Pérez",afigueroa@osaf.gob.mx,XPDNW8NBUH
"Axel Francisco Mendoza Llamas",afmendoza@osaf.gob.mx,UFTROLEUAA
"ALEJANDRO FUENTES VILLANUEVA",afuentes@osaf.gob.mx,QK0EBZTPHS
"Angélica María Farías Cárdenas",amfarias@osaf.gob.mx,ILRALB9N0K
"Amelia del Rocío Ladín Amezcua",arlandin@osaf.gob.mx,SQASWCBZK6
"Armando Rodríguez Valdéz",armando_lda0812@hotmail.com,OXB8VHGYQY
"Indira Isabel García Pérez",asuperior@osaf.gob.mx,NVXVMQQLFD
"María Cristina Ávalos Ramírez",audifin@osaf.gob.mx,JHUOSD4KNO
"Antonio Manlio Centeno de la Rosa",audiobra@osaf.gob.mx,UB1ZDHPIWE
"Brenda Elizabeth Figueroa Michel",befigueroa@osaf.gob.mx,8ZLXIXPBA3
"Brenda Jahel Vergara Amezcua",bvergara@osaf.gob.mx,T1XXSMZPPO
"Carlos Alberto Izquierdo Rodríguez",cizquierdo@osaf.gob.mx,AVMREEPGF3
"Celia Jazmín García Ruelas",cjgarcia@osaf.gob.mx,B1CLIKBXAF
"Claudia Elizabeth Moreno ",cmoreno@osaf.gob.mx,MOUYSI5M38
"Dora Eugenia Victorino Molina",devictorino@osaf.gob.mx,KULAFR7KLR
"Estefanía Álvarez Ramírez",ealvarez@osaf.gob.mx,TRMMW6RQRU
"Eva Cristina Ochoa Ceballos",ecochoa@osaf.gob.mx,VUPVDTGSL5
"Esthela León Preciado",eleon@osaf.gob.mx,1EG2YZY8QX
"Esmeralda López León",elopez@osaf.gob.mx,IABOAP0ARM
"Emilio Mancilla Alfaro",emancilla@osaf.gob.mx,KYGKLQV0KQ
"Estela Ramírez Avalos",eramirez@osaf.gob.mx,RHQ5MV7W7W
"Fernando Sergio Corona Fuentes",fcorona@osaf.gob.mx,osafig-01
"Fidel Adrián González Díaz",fgonzalez@osaf.gob.mx,TK3ZEPI6EP
"Fabiola Ramos Guzmán",framos@osaf.gob.mx,2HP3GDH0CY
"Fernanda Rosalía Hernández Gómez",frhernandez@osaf.gob.mx,FGF3PZQB5L
"Hermes Cárdenas Alvarez",hcardenas@osaf.gob.mx,3MM8JCZFAS
"Héctor Delgado González",hdelgado@osaf.gob.mx,XFDPC4VRJA
"Herlinda Núñez Gómez",hnunez@osaf.gob.mx,BYJMAQDORD
"Hernán Salazar Fuentes",hsalazar@osaf.gob.mx,5TDG8DOLTL
"José Antonio Chávez Cortes",jachavez@osaf.gob.mx,LH7AWDHWXQ
"Jorge Alberto Guzmán Cervantes",jaguzman@osaf.gob.mx,XKEKO547IE
"J. Jesús Aréchiga Maravilla",jarechiga@osaf.gob.mx,PCCHPC1HRW
"Juan Carlos Cruz Larios",jccruz@osaf.gob.mx,07KR2ISMI9
"Jorge Humberto Santos Torres",jhsantos@osaf.gob.mx,6AU2HL9KOU
"José de Jesús Andrade Ramírez",jjandrade@osaf.gob.mx,5DI316MEXG
"Juan José Barrera Arias",jjbarrera@osaf.gob.mx,KJOOX05DOS
"J. Jesús Pérez Medina",jjperez@osaf.gob.mx,B4RU0YK4GP
"JOSE LUIS VARGAS ESPIRITU",jlvargas@osaf.gob.mx,CYDBIE57RH
"Juan Manuel Sandoval Silva",jmsandoval@osaf.gob.mx,81ZB8N1KT8
"José Ramón Chávez Velázquez",jrchavez@osaf.gob.mx,YMGBXLLBIW
"Korina Ivette Álvarez Castillo",kialvarez@osaf.gob.mx,LESXJWUM0O
"Karla Lizett Salazar Rivas",klsalazar@osaf.gob.mx,UYYCNTI5DL
"Leobardo Castellanos Peralta",lcastellanos@osaf.gob.mx,EOMWRI3BFL
"Lourdes del Rocio Figueroa Bazan",lfigueroa@osaf.gob.mx,DQAXSLPZHL
"Ludwig Torres Anguiano",ltorres@osaf.gob.mx,KAKEW3UGMV
"MARIA TERESA ARIAS FRANCO",marias@osaf.gob.mx,TQKQNK8QYN
"Marco Antonio 1 Vargas Plascencia",mavargas@osaf.gob.mx,ILV29X6OIV
"Manuel Bayardo Parra",mbayardo@osaf.gob.mx,VAEEJXTQOE
"MARIA MERCEDES CAMPOS OSORIO",mcampos@osaf.gob.mx,RO4PTSPFFS
"Martín Centeno Pulido",mcenteno@osaf.gob.mx,YAQEWCRK8R
"Ma. Esmeralda Martínez Cárdenas",memartinez@osaf.gob.mx,5JJ17YRL4S
"MA. GUADALUPE GODINEZ ANZAR",mggodinez@osaf.gob.mx,SZIBRNQ1ZE
"María Gabriela Gómez Zúñiga",mggomez@osaf.gob.mx,VNJZ7FPO9O
"María de Jesús Jiménez Morfin",mjimenez@osaf.gob.mx,PNNVH6JFGU
"María Magdalena Chávez Michel",mmchavez@osaf.gob.mx,ZL83IX8ZL8
"Mario Ochoa García",mochoa@osaf.gob.mx,SSA1Y2LRNB
"Marcel Gilberto Rodríguez Alcaraz",mrodriguez@osaf.gob.mx,NITKVQKE98
"Nora Huezo Salas",nhuezo@osaf.gob.mx,KQG5MC7WYF
"Nayeli Rodríguez López",nrodriguez@osaf.gob.mx,KXJ4BNERWN
"Naida Teresa Estopín Mayoral",ntestopin@osaf.gob.mx,WBOCQHEJ92
"Miguel Ángel Preciado Cortés",oic@osaf.gob.mx,osafig-01
"Patricia Livier Moreno Gaspar",pmoreno@osaf.gob.mx,AEBAO7WX65
"Pedro Santacruz Ramírez",psantacruz@osaf.gob.mx,RSZKCARMLW
"Ramón Castillo Torres",rcastillo@osaf.gob.mx,OCZC2CDS1T
"Rocío Lizette Méndez Vázquez",rlmendez@osaf.gob.mx,QWV5WME35D
"Roberto Lozoya ",rlozoya@osaf.gob.mx,IKDECVSC8Q
"Rosa Georgina Torres Mata",rtorres@osaf.gob.mx,LDWTV9B4SZ
"Regina García Santana",tesoreria@osaf.gob.mx,MBLY4AV3BV
"Celina Yareth Garibay Vázquez",us@osaf.gob.mx,PAERQ9M4UV
"Verónica Gabriela Bautista Parra",vgbautista@osaf.gob.mx,HK2HAC0MRY
"Vitalina Ortiz Chávez",vortiz@osaf.gob.mx,OLX0QP7HSF
"Luis Germán Apolinar Macias",lgapolinar@osaf.gob.mx,NWWELJVGZM
"Andrés Aguayo Gutiérrez",administrativo@osaf.gob.mx,DW1AJFPHTE
"Juan Manuel Hernández González",ui@osaf.gob.mx,NEHFUO6GUX
"Gabriela Elizabeth Salgado Rosas",gsalgado@osaf.gob.mx,28T1SPGTFY
"Saúl Muñoz Mendoza",smunoz@osaf.gob.mx,HYA5YYUVGA
"Omar Hernández Pérez",ohernandez@osaf.gob.mx,APSVLAAVNX
"Jhoana Teresa Andrade Gutiérrez",jtandrade@osaf.gob.mx,NX9LNTCAEG
"Heriberto Brust García",hbrust@osaf.gob.mx,osafig-01
"Adán Cruz Huerta",adancruz@osaf.gob.mx,osafig-01
"David Esquivel Haro",dharo@osaf.gob.mx,Alternate4*
"Brian Barroso Pacheco",bbarroso@osaf.gob.mx,BAPB960306HVZRCR02
"José Margarito Gutiérrez Aguilar",jgutierrez@osaf.gob.mx,GUAM960228HCMTGR07
"Alondra Martínez Virelas",amartinez@osaf.gob.mx,MAVA960605MCMRRL00
"Melissa Lizardo Licea",mlizardo@osaf.gob.mx,LILM961109MCMZCL09
"Linda Iris Oregón Cabrera",loregon@osaf.gob.mx,OECL970520MGRRBN04
"José Gustavo Rincón Hernández","jrincon@osaf.gob.mx                               ",RIHG880428HCMNRS00
"Edgar de Jesús Torres Moran",etorres@osaf.gob.mx,TOME970428HMNRRD01
"Usuario 1 Inicial",usuarioInicial@osaf.gob.mx,osafig-01
"Usuario 2 Modificacion",usuarioModificacion@osaf.gob.mx,osafig-01
"Usuario 3 Conclusion",usuarioConclusion@osaf.gob.mx,osafig-01
"Usuario 4 Inicial",userInicialS@osaf.gob.mx,osafig-01
"Usuario 5 Modificacion",userModificacionS@osaf.gob.mx,osafig-01
"Usuario 6 Conclusion",userConclusionS@osaf.gob.mx,osafig-01
"Jhovany Israel Santillan Dominguez",jsantillan@osaf.gob.mx,SADJ970314HCMNMH03
"Usuario Pruebas General",usuariopruebas@osaf.gob.mx,osafig-02
"Alma rosa Calderón Vallejo",acalderon@osaf.gob.mx,osafig-01
"Miguel Ángel Guzmán Nava",juridico@osaf.gob.mx,Ozmt89eI
"guillermo sánchez cruz",gsanchez@osaf.gob.mx,Kw6ws1MD
"OSMAR GALILEO RIVERA VELÁZQUEZ",orivera@osaf.gob.mx,osafig-01
"cosme fulanito fulanito2",cosmefulanito@osaf.gob.mx,APFVJfCw
"LEONARDO CARDONA CORTEZ",lcardona@osaf.gob.mx,dUbqMX59
"Rosa isela anguiano sanchez",ranguiano@osaf.gob.mx,wJAusHO4
"José eduardo rivas Murillo",erivas@osaf.gob.mx,hGGpTt25
"ximena carrillo luna",xcarrillo@osaf.gob.mx,wG0L5yM5
"KENIA ODEMARIS DELGADO AGUILAR",kdelgado@osaf.gob.mx,KGQ501ys
"MIRIAM GUADALUPE RAMIREZ CASTILLO",mramirez@osaf.gob.mx,QSxXHPwB
"VANESSA ELIZABETH RAMOS LLERENAS",vramos@osaf.gob.mx,n9aRtnas
"BRAYAN JESUS MARTINEZ SANDOVAL",bmartinez@osaf.gob.mx,JQpJetfB
"Pedro Josué nicolas aguayo",pnicolas@osaf.gob.mx,p5UdchXb
